{
  "current_page": 1,
  "total_pages": 10,
  "total_items": 1234,
  "photos": [
    {
      "voted": false,
      "editors_choice_date": null,
      "hi_res_uploaded": 0,
      "watermark": false,
      "latitude": 55.755826,
      "category": 7,
      "comments_count": 31,
      "camera": "ILCA-99M2",
      "images": [
        {
          "https_url": "https://source.unsplash.com/random",
          "format": "jpeg",
          "size": 2,
          "url": "https://source.unsplash.com/random"
        }
      ],
      "nsfw": false,
      "image_url": [
        "https://source.unsplash.com/random"
      ],
      "votes_count": 1460,
      "for_sale": false,
      "converted_bits": 0,
      "liked": false,
      "longitude": 37.6172999,
      "positive_votes_count": 1460,
      "shutter_speed": "1/160",
      "image_format": "jpeg",
      "exclude_gads": false,
      "rating": 99.8,
      "user_id": 23896,
      "aperture": "5",
      "collections_count": 90,
      "height": 7128,
      "comments": [
      ],
      "converted": false,
      "iso": "50",
      "privacy": false,
      "sales_count": 0,
      "favorites_count": 0,
      "store_width": 4858,
      "is_free_photo": false,
      "license_requests_enabled": false,
      "feature_date": "2019-02-28T19:03:29+00:00",
      "description": "Ph: Maxim Maximov \nMd: Mariya Volokh \nSt: Quattro Fashion\nFB: <a href=\"https://www.facebook.com/the.maksimov\">facebook.com/the.maksimov</a>\nBK: <a href=\"https://vk.com/themaksimov\">vk.com/themaksimov</a>\nFlickr: <a href=\"https://www.flickr.com/photos/52602707@N08/\">flickr.com</a>\nInstagram: <a href=\"https://instagram.com/the.maksimov\">instagram.com/the.maksimov</a>",
      "highest_rating": 99.8,
      "lens": null,
      "taken_at": "2018-12-26T10:25:17-05:00",
      "for_critique": false,
      "name": "Portrait",
      "for_sale_date": null,
      "disliked": false,
      "store_height": 7128,
      "created_at": "2019-02-28T14:01:42-05:00",
      "editors_choice": false,
      "status": 1,
      "editored_by": {
      },
      "licensing_status": 0,
      "critiques_callout_dismissed": false,
      "request_to_buy_enabled": false,
      "licensing_requested": false,
      "highest_rating_date": "2019-03-01T07:06:06-05:00",
      "focal_length": "85",
      "width": 4858,
      "url": "/photo/296479267/portrait-by-maxim-maximov",
      "licensing_suggested": false,
      "id": 296479267,
      "purchased": false,
      "profile": true,
      "location": null,
      "license_type": 0,
      "feature": "popular",
      "crop_version": 0,
      "times_viewed": 13979,
      "user": {
        "upgrade_status": 0,
        "affection": 2042730,
        "fullname": "Maxim Maximov",
        "city": "Moscow",
        "username": "The-Maksimov",
        "lastname": "Maximov",
        "id": 23896,
        "store_on": true,
        "userpic_https_url": "http://i.pravatar.cc/300",
        "cover_url": "http://i.pravatar.cc/300",
        "firstname": "Maxim",
        "country": "Rassia",
        "avatars": {
          "small": {
            "https": "http://i.pravatar.cc/300"
          },
          "default": {
            "https": "http://i.pravatar.cc/300"
          },
          "tiny": {
            "https": "http://i.pravatar.cc/300"
          },
          "large": {
            "https": "http://i.pravatar.cc/300"
          }
        },
        "usertype": 0,
        "userpic_url": "http://i.pravatar.cc/300"
      }
    },
    {
      "voted": false,
      "editors_choice_date": null,
      "hi_res_uploaded": 0,
      "watermark": false,
      "latitude": null,
      "category": 11,
      "comments_count": 27,
      "camera": null,
      "images": [
        {
          "https_url": "https://source.unsplash.com/random",
          "format": "jpeg",
          "size": 2,
          "url": "https://source.unsplash.com/random"
        }
      ],
      "nsfw": false,
      "image_url": [
        "https://source.unsplash.com/random"
      ],
      "votes_count": 1157,
      "for_sale": false,
      "converted_bits": 0,
      "liked": false,
      "longitude": null,
      "positive_votes_count": 1157,
      "shutter_speed": null,
      "image_format": "jpeg",
      "exclude_gads": false,
      "rating": 99.7,
      "user_id": 443716,
      "aperture": null,
      "collections_count": 14,
      "height": 3600,
      "comments": [
      ],
      "converted": false,
      "iso": null,
      "privacy": false,
      "sales_count": 0,
      "favorites_count": 0,
      "store_width": 5400,
      "is_free_photo": false,
      "license_requests_enabled": true,
      "feature_date": "2019-02-28T21:14:19+00:00",
      "description": null,
      "highest_rating": 99.7,
      "lens": null,
      "taken_at": null,
      "for_critique": false,
      "name": "The crowd",
      "for_sale_date": null,
      "disliked": false,
      "store_height": 3600,
      "created_at": "2019-02-28T16:12:42-05:00",
      "editors_choice": false,
      "status": 1,
      "editored_by": {
      },
      "licensing_status": 0,
      "critiques_callout_dismissed": false,
      "request_to_buy_enabled": false,
      "licensing_requested": false,
      "highest_rating_date": "2019-03-01T05:11:08-05:00",
      "focal_length": null,
      "width": 5400,
      "url": "/photo/296490527/the-crowd-by-andre-villeneuve",
      "licensing_suggested": false,
      "id": 296490527,
      "purchased": false,
      "profile": true,
      "location": null,
      "license_type": 0,
      "feature": "popular",
      "crop_version": 0,
      "times_viewed": 7316,
      "user": {
        "upgrade_status": 0,
        "affection": 3185677,
        "fullname": "Andre Villeneuve",
        "city": "",
        "username": "Andre_Villeneuve",
        "lastname": "Villeneuve",
        "id": 443716,
        "store_on": true,
        "userpic_https_url": "http://i.pravatar.cc/300",
        "cover_url": "http://i.pravatar.cc/300",
        "firstname": "Andre",
        "country": "",
        "avatars": {
          "small": {
            "https": "http://i.pravatar.cc/300"
          },
          "default": {
            "https": "http://i.pravatar.cc/300"
          },
          "tiny": {
            "https": "http://i.pravatar.cc/300"
          },
          "large": {
            "https": "http://i.pravatar.cc/300"
          }
        },
        "usertype": 0,
        "userpic_url": "http://i.pravatar.cc/300"
      }
    },
    {
      "voted": false,
      "editors_choice_date": null,
      "hi_res_uploaded": 0,
      "watermark": false,
      "latitude": 59.9342802,
      "category": 7,
      "comments_count": 10,
      "camera": "Canon EOS 5D Mark III",
      "images": [
        {
          "https_url": "https://source.unsplash.com/random",
          "format": "jpeg",
          "size": 2,
          "url": "https://source.unsplash.com/random"
        }
      ],
      "nsfw": false,
      "image_url": [
        "https://source.unsplash.com/random"
      ],
      "votes_count": 1198,
      "for_sale": false,
      "converted_bits": 0,
      "liked": false,
      "longitude": 30.3350986,
      "positive_votes_count": 1198,
      "shutter_speed": "1/400",
      "image_format": "jpeg",
      "exclude_gads": false,
      "rating": 99.7,
      "user_id": 7847253,
      "aperture": "2",
      "collections_count": 79,
      "height": 5760,
      "comments": [
      ],
      "converted": false,
      "iso": "100",
      "privacy": false,
      "sales_count": 0,
      "favorites_count": 0,
      "store_width": 3840,
      "is_free_photo": false,
      "license_requests_enabled": false,
      "feature_date": "2019-02-28T19:33:15+00:00",
      "description": "Preset: VANKOU Color 2017 6\nMy videotutorials and presets: www.proskurinivan.com",
      "highest_rating": 99.7,
      "lens": "EF135mm f/2L USM",
      "taken_at": "2018-02-28T09:02:58-05:00",
      "for_critique": false,
      "name": "Zemfira",
      "for_sale_date": null,
      "disliked": false,
      "store_height": 5760,
      "created_at": "2019-02-28T14:31:15-05:00",
      "editors_choice": false,
      "status": 1,
      "editored_by": {
      },
      "licensing_status": 0,
      "critiques_callout_dismissed": false,
      "request_to_buy_enabled": false,
      "licensing_requested": false,
      "highest_rating_date": "2019-03-01T03:42:20-05:00",
      "focal_length": "135",
      "width": 3840,
      "url": "/photo/296481837/zemfira-by-ivan-proskurin",
      "licensing_suggested": false,
      "id": 296481837,
      "purchased": false,
      "profile": true,
      "location": null,
      "license_type": 0,
      "feature": "popular",
      "crop_version": 0,
      "times_viewed": 9599,
      "user": {
        "upgrade_status": 3,
        "affection": 762502,
        "fullname": "Ivan Proskurin",
        "city": "Saint-Petersburg",
        "username": "vankou",
        "lastname": "Proskurin",
        "id": 7847253,
        "store_on": true,
        "userpic_https_url": "http://i.pravatar.cc/300",
        "cover_url": "http://i.pravatar.cc/300",
        "firstname": "Ivan",
        "country": "Russia",
        "avatars": {
          "small": {
            "https": "http://i.pravatar.cc/300"
          },
          "default": {
            "https": "http://i.pravatar.cc/300"
          },
          "tiny": {
            "https": "http://i.pravatar.cc/300"
          },
          "large": {
            "https": "http://i.pravatar.cc/300"
          }
        },
        "usertype": 0,
        "userpic_url": "http://i.pravatar.cc/300"
      }
    },
    {
      "voted": false,
      "editors_choice_date": null,
      "hi_res_uploaded": 0,
      "watermark": false,
      "latitude": null,
      "category": 18,
      "comments_count": 32,
      "camera": "ILCE-6500",
      "images": [
        {
          "https_url": "https://source.unsplash.com/random",
          "format": "jpeg",
          "size": 2,
          "url": "https://source.unsplash.com/random"
        }
      ],
      "nsfw": false,
      "image_url": [
        "https://source.unsplash.com/random"
      ],
      "votes_count": 1280,
      "for_sale": false,
      "converted_bits": 0,
      "liked": false,
      "longitude": null,
      "positive_votes_count": 1280,
      "shutter_speed": "1/50",
      "image_format": "jpeg",
      "exclude_gads": false,
      "rating": 99.7,
      "user_id": 9650601,
      "aperture": "11",
      "collections_count": 34,
      "height": 1500,
      "comments": [
      ],
      "converted": false,
      "iso": "100",
      "privacy": false,
      "sales_count": 0,
      "favorites_count": 0,
      "is_free_photo": false,
      "license_requests_enabled": true,
      "feature_date": "2019-02-28T19:09:20+00:00",
      "description": "<a href=\"http://www.martinpodt.com/Tutorials/Workflow-Martin\">Click here if you are interested to learn my workflow.</a>",
      "highest_rating": 99.7,
      "lens": "E 18-200mm F3.5-6.3 OSS",
      "taken_at": "2018-11-14T22:54:26-05:00",
      "for_critique": false,
      "name": "Sunburst",
      "for_sale_date": null,
      "disliked": false,
      "created_at": "2019-02-28T14:07:01-05:00",
      "editors_choice": false,
      "status": 1,
      "editored_by": {
      },
      "licensing_status": 0,
      "critiques_callout_dismissed": false,
      "request_to_buy_enabled": false,
      "licensing_requested": false,
      "highest_rating_date": "2019-03-01T02:49:34-05:00",
      "focal_length": "54",
      "width": 1000,
      "url": "/photo/296479753/sunburst-by-martin-podt",
      "licensing_suggested": false,
      "id": 296479753,
      "purchased": false,
      "profile": true,
      "location": null,
      "license_type": 0,
      "feature": "popular",
      "crop_version": 0,
      "times_viewed": 8076,
      "user": {
        "upgrade_status": 3,
        "affection": 1234505,
        "fullname": "Martin Podt",
        "city": "Holten",
        "username": "martinpodt",
        "lastname": "Podt",
        "id": 9650601,
        "store_on": true,
        "userpic_https_url": "http://i.pravatar.cc/300",
        "cover_url": "http://i.pravatar.cc/300",
        "firstname": "Martin",
        "country": "The Netherlands",
        "avatars": {
          "small": {
            "https": "http://i.pravatar.cc/300"
          },
          "default": {
            "https": "http://i.pravatar.cc/300"
          },
          "tiny": {
            "https": "http://i.pravatar.cc/300"
          },
          "large": {
            "https": "http://i.pravatar.cc/300"
          }
        },
        "usertype": 0,
        "userpic_url": "http://i.pravatar.cc/300"
      }
    },
    {
      "voted": false,
      "editors_choice_date": null,
      "hi_res_uploaded": 0,
      "watermark": false,
      "latitude": null,
      "category": 7,
      "comments_count": 8,
      "camera": "Canon EOS 5D Mark IV",
      "images": [
        {
          "https_url": "https://source.unsplash.com/random",
          "format": "jpeg",
          "size": 2,
          "url": "https://source.unsplash.com/random"
        }
      ],
      "nsfw": false,
      "image_url": [
        "https://source.unsplash.com/random"
      ],
      "votes_count": 1255,
      "for_sale": false,
      "converted_bits": 0,
      "liked": false,
      "longitude": null,
      "positive_votes_count": 1255,
      "shutter_speed": "1/125",
      "image_format": "jpeg",
      "exclude_gads": false,
      "rating": 99.7,
      "user_id": 218539,
      "aperture": "4",
      "collections_count": 70,
      "height": 6176,
      "comments": [
      ],
      "converted": false,
      "iso": "100",
      "privacy": false,
      "sales_count": 0,
      "favorites_count": 0,
      "store_width": 4336,
      "is_free_photo": false,
      "license_requests_enabled": false,
      "feature_date": "2019-02-28T19:03:40+00:00",
      "description": null,
      "highest_rating": 99.7,
      "lens": "EF85mm f/1.2L II USM",
      "taken_at": "2019-02-16T06:58:10-05:00",
      "for_critique": false,
      "name": "Alisa",
      "for_sale_date": null,
      "disliked": false,
      "store_height": 6176,
      "created_at": "2019-02-28T13:56:21-05:00",
      "editors_choice": false,
      "status": 1,
      "editored_by": {
      },
      "licensing_status": 0,
      "critiques_callout_dismissed": false,
      "request_to_buy_enabled": false,
      "licensing_requested": false,
      "highest_rating_date": "2019-03-01T02:29:35-05:00",
      "focal_length": "85",
      "width": 4336,
      "url": "/photo/296478881/alisa-by-zachar-rise",
      "licensing_suggested": false,
      "id": 296478881,
      "purchased": false,
      "profile": true,
      "location": null,
      "license_type": 0,
      "feature": "popular",
      "crop_version": 0,
      "times_viewed": 12040,
      "user": {
        "upgrade_status": 2,
        "affection": 2011583,
        "fullname": "Zachar Rise",
        "city": "Meitar",
        "username": "zachar",
        "lastname": "Rise",
        "id": 218539,
        "store_on": true,
        "userpic_https_url": "http://i.pravatar.cc/300",
        "cover_url": "http://i.pravatar.cc/300",
        "firstname": "Zachar",
        "country": "Israel",
        "avatars": {
          "small": {
            "https": "http://i.pravatar.cc/300"
          },
          "default": {
            "https": "http://i.pravatar.cc/300"
          },
          "tiny": {
            "https": "http://i.pravatar.cc/300"
          },
          "large": {
            "https": "http://i.pravatar.cc/300"
          }
        },
        "usertype": 0,
        "userpic_url": "http://i.pravatar.cc/300"
      }
    },
    {
      "voted": false,
      "editors_choice_date": null,
      "hi_res_uploaded": 0,
      "watermark": true,
      "latitude": 63.4305149,
      "category": 8,
      "comments_count": 70,
      "camera": null,
      "images": [
        {
          "https_url": "https://source.unsplash.com/random",
          "format": "jpeg",
          "size": 2,
          "url": "https://source.unsplash.com/random"
        }
      ],
      "nsfw": false,
      "image_url": [
        "https://source.unsplash.com/random"
      ],
      "votes_count": 1174,
      "for_sale": false,
      "converted_bits": 0,
      "liked": false,
      "longitude": 10.3950528,
      "positive_votes_count": 1174,
      "shutter_speed": null,
      "image_format": "jpeg",
      "exclude_gads": false,
      "rating": 99.7,
      "user_id": 2232775,
      "aperture": null,
      "collections_count": 37,
      "height": 1087,
      "comments": [
      ],
      "converted": false,
      "iso": null,
      "privacy": false,
      "sales_count": 0,
      "favorites_count": 0,
      "is_free_photo": false,
      "license_requests_enabled": true,
      "feature_date": "2019-02-28T18:55:51+00:00",
      "description": "Trondheim, Norway. Feb 2019. \nWe've had a few days with milder temperatures up here now, resulting in serious snow-melt and a scent of spring in the air. Right now it's snowing again, though :)",
      "highest_rating": 99.7,
      "lens": null,
      "taken_at": null,
      "for_critique": false,
      "name": "February spring",
      "for_sale_date": null,
      "disliked": false,
      "created_at": "2019-02-28T13:50:50-05:00",
      "editors_choice": false,
      "status": 1,
      "editored_by": {
      },
      "licensing_status": 0,
      "critiques_callout_dismissed": false,
      "request_to_buy_enabled": false,
      "licensing_requested": false,
      "highest_rating_date": "2019-03-01T06:05:59-05:00",
      "focal_length": null,
      "width": 2048,
      "url": "/photo/296478405/february-spring-by-dag-ole-nordhaug",
      "licensing_suggested": false,
      "id": 296478405,
      "purchased": false,
      "profile": true,
      "location": null,
      "license_type": 0,
      "feature": "popular",
      "crop_version": 0,
      "times_viewed": 5764,
      "user": {
        "upgrade_status": 3,
        "affection": 487812,
        "fullname": "Dag Ole Nordhaug",
        "city": "Trondheim",
        "username": "Nordhaug-photography",
        "lastname": "Nordhaug",
        "id": 2232775,
        "store_on": true,
        "userpic_https_url": "http://i.pravatar.cc/300",
        "cover_url": "http://i.pravatar.cc/300",
        "firstname": "Dag Ole",
        "country": "Norway",
        "avatars": {
          "small": {
            "https": "http://i.pravatar.cc/300"
          },
          "default": {
            "https": "http://i.pravatar.cc/300"
          },
          "tiny": {
            "https": "http://i.pravatar.cc/300"
          },
          "large": {
            "https": "http://i.pravatar.cc/300"
          }
        },
        "usertype": 0,
        "userpic_url": "http://i.pravatar.cc/300"
      }
    },
    {
      "voted": false,
      "editors_choice_date": null,
      "hi_res_uploaded": 0,
      "watermark": false,
      "latitude": null,
      "category": 8,
      "comments_count": 38,
      "camera": "NIKON D810",
      "images": [
        {
          "https_url": "https://source.unsplash.com/random",
          "format": "jpeg",
          "size": 2,
          "url": "https://source.unsplash.com/random"
        }
      ],
      "nsfw": false,
      "image_url": [
        "https://source.unsplash.com/random"
      ],
      "votes_count": 1055,
      "for_sale": false,
      "converted_bits": 0,
      "liked": false,
      "longitude": null,
      "positive_votes_count": 1055,
      "shutter_speed": "10",
      "image_format": "jpeg",
      "exclude_gads": false,
      "rating": 99.7,
      "user_id": 13325403,
      "aperture": "13",
      "collections_count": 25,
      "height": 4718,
      "comments": [
      ],
      "converted": false,
      "iso": "64",
      "privacy": false,
      "sales_count": 0,
      "favorites_count": 0,
      "store_width": 7078,
      "is_free_photo": false,
      "license_requests_enabled": true,
      "feature_date": "2019-02-28T18:25:43+00:00",
      "description": "Thanks to all for your comments and your likes!",
      "highest_rating": 99.7,
      "lens": "14.0-24.0 mm f/2.8",
      "taken_at": "2017-01-24T10:55:20-05:00",
      "for_critique": false,
      "name": "Ethereal",
      "for_sale_date": null,
      "disliked": false,
      "store_height": 4718,
      "created_at": "2019-02-28T13:21:50-05:00",
      "editors_choice": false,
      "status": 1,
      "editored_by": {
      },
      "licensing_status": 0,
      "critiques_callout_dismissed": false,
      "request_to_buy_enabled": true,
      "licensing_requested": false,
      "highest_rating_date": "2019-03-01T07:48:10-05:00",
      "focal_length": "24",
      "width": 7078,
      "url": "/photo/296476025/ethereal-by-robert-didierjean",
      "licensing_suggested": false,
      "id": 296476025,
      "purchased": false,
      "profile": true,
      "location": null,
      "license_type": 0,
      "feature": "popular",
      "crop_version": 0,
      "times_viewed": 4913,
      "user": {
        "upgrade_status": 0,
        "affection": 781660,
        "fullname": "Robert Didierjean",
        "city": "ALSACE",
        "username": "tenchinage",
        "lastname": "Didierjean",
        "id": 13325403,
        "store_on": true,
        "userpic_https_url": "http://i.pravatar.cc/300",
        "cover_url": "http://i.pravatar.cc/300",
        "firstname": "Robert",
        "country": "FRANCE",
        "avatars": {
          "small": {
            "https": "http://i.pravatar.cc/300"
          },
          "default": {
            "https": "http://i.pravatar.cc/300"
          },
          "tiny": {
            "https": "http://i.pravatar.cc/300"
          },
          "large": {
            "https": "http://i.pravatar.cc/300"
          }
        },
        "usertype": 0,
        "userpic_url": "http://i.pravatar.cc/300"
      }
    },
    {
      "voted": false,
      "editors_choice_date": null,
      "hi_res_uploaded": 0,
      "watermark": true,
      "latitude": null,
      "category": 13,
      "comments_count": 32,
      "camera": "PENTAX K-1",
      "images": [
        {
          "https_url": "https://source.unsplash.com/random",
          "format": "jpeg",
          "size": 2,
          "url": "https://source.unsplash.com/random"
        }
      ],
      "nsfw": false,
      "image_url": [
        "https://source.unsplash.com/random"
      ],
      "votes_count": 1073,
      "for_sale": false,
      "converted_bits": 0,
      "liked": false,
      "longitude": null,
      "positive_votes_count": 1073,
      "shutter_speed": "1/1250",
      "image_format": "jpeg",
      "exclude_gads": false,
      "rating": 99.7,
      "user_id": 8758181,
      "aperture": "4.5",
      "collections_count": 9,
      "height": 4912,
      "comments": [
      ],
      "converted": false,
      "iso": "200",
      "privacy": false,
      "sales_count": 0,
      "favorites_count": 0,
      "store_width": 7360,
      "is_free_photo": false,
      "license_requests_enabled": true,
      "feature_date": "2019-02-28T17:59:30+00:00",
      "description": "Travel in the beautiful Scottish highlands.",
      "highest_rating": 99.7,
      "lens": "HD PENTAX-D FA 15-30mm f/2.8 ED SDM W",
      "taken_at": "2018-10-10T17:34:32-04:00",
      "for_critique": false,
      "name": "Unique Scottish Highlands",
      "for_sale_date": null,
      "disliked": false,
      "store_height": 4912,
      "created_at": "2019-02-28T12:48:08-05:00",
      "editors_choice": false,
      "status": 1,
      "editored_by": {
      },
      "licensing_status": 0,
      "critiques_callout_dismissed": false,
      "request_to_buy_enabled": false,
      "licensing_requested": false,
      "highest_rating_date": "2019-03-01T07:03:18-05:00",
      "focal_length": "16",
      "width": 7360,
      "url": "/photo/296472969/unique-scottish-highlands-by-hin-stone-%E7%9F%B3",
      "licensing_suggested": false,
      "id": 296472969,
      "purchased": false,
      "profile": true,
      "location": null,
      "license_type": 0,
      "feature": "popular",
      "crop_version": 0,
      "times_viewed": 3763,
      "user": {
        "upgrade_status": 2,
        "affection": 576178,
        "fullname": "hin stone （石）",
        "city": "Tianjin",
        "username": "jeffreyl",
        "lastname": "stone （石）",
        "id": 8758181,
        "store_on": true,
        "userpic_https_url": "http://i.pravatar.cc/300",
        "cover_url": "http://i.pravatar.cc/300",
        "firstname": "hin",
        "country": "China",
        "avatars": {
          "small": {
            "https": "http://i.pravatar.cc/300"
          },
          "default": {
            "https": "http://i.pravatar.cc/300"
          },
          "tiny": {
            "https": "http://i.pravatar.cc/300"
          },
          "large": {
            "https": "http://i.pravatar.cc/300"
          }
        },
        "usertype": 0,
        "userpic_url": "http://i.pravatar.cc/300"
      }
    }
  ]
}